01_get_check_data
…
Some appear to be test data, e.g. last name = XXX or “NEW TEST”

There are very few records missing first name or last name, and most
of them are REMOVED status. The easiest thing to do is just get rid of
those records.

Exclude records with missing first or last name

3.6.2 Check for lower-case letters.

d %>% dplyr::select(last_name) %>%
  dplyr::filter(stringr::str_detect(last_name, "[a-z]"))

# A tibble: 50 x 1
   last_name
   <chr>    
 1 McCLURE  
 2 McCULLLEY
 3 DeNOON   
 4 DeSIMON  
 5 DeSIMON  
 6 DeVANE   
 7 DeVANE   
 8 LeMASTER 
 9 MaCDONELL
10 MaCDONELL
# … with 40 more rows

d %>% dplyr::select(first_name) %>%
  dplyr::filter(stringr::str_detect(first_name, "[a-z]"))

# A tibble: 24 x 1
   first_name
   <chr>     
 1 JoANN     
 2 LaVERNE   
 3 BettyJEAN 
 4 JoANNE    
 5 LaWANDA   
 6 LaVAN     
 7 JoANN     
 8 LaDORA    
 9 JoANN     
10 SiROBERT  
# … with 14 more rows

d %>% dplyr::select(midl_name) %>%
  dplyr::filter(stringr::str_detect(midl_name, "[a-z]"))

# A tibble: 169 x 1
   midl_name
   <chr>    
 1 McBRIDE  
 2 McBRIDE  
 3 McCLENNY 
 4 McLEAN   
 5 LaVERNE  
 6 McCLEASE 
 7 McDAY    
 8 McCOLLUM 
 9 McKINNIE 
10 McLAWHORN
# … with 159 more rows
…
Occur in last, first, and middle names.

Associated with particles where there would optionally be a space,
e.g. De VANE.

Map all letters to upper case

3.6.3 Digits

3.6.3.1 Check for digits

d %>% dplyr::select(last_name) %>%
  dplyr::filter(stringr::str_detect(last_name, "[0-9]"))

# A tibble: 90 x 1
   last_name   
   <chr>       
 1 HOLLERS  111
 2 GALL0WAY    
 3 MV 5/17/95  
 4 01          
 5 YARBOR0     
 6 J0HNSON     
 7 LEAK 111    
 8 BURT0N      
 9 REYN0LDS    
10 4MCMANUS    
# … with 80 more rows

d %>% dplyr::select(first_name) %>%
  dplyr::filter(stringr::str_detect(first_name, "[0-9]"))

# A tibble: 81 x 1
   first_name
   <chr>     
 1 HERM0N    
 2 BL0SSIE   
 3 J0HN      
 4 J0HNNY    
 5 MAJ0R     
 6 J0NATHAN  
 7 J0SEPH    
 8 L0RI      
 9 LEPOLE0N  
10 J0 ELLEN  
# … with 71 more rows

d %>% dplyr::select(midl_name) %>%
  dplyr::filter(stringr::str_detect(midl_name, "[0-9]"))

# A tibble: 299 x 1
   midl_name      
   <chr>          
 1 MIZELLE25248249
 2 0VERTON        
 3 111            
 4 RAY 1.         
 5 0DELL          
 6 OLLIE 111      
 7 ARGUS 4TH      
 8 3RD.           
 9 LYN451         
10 JAMES 111      
# … with 289 more rows
…
Some hyphenated middle names have an extra space, e.g. “A - BERTHA”,
“H - JACK”

I suspect that hyphenation is likely to be a bit unreliable in
transcription.

Map hyphen to empty string

3.6.4.2 Check for slash

d %>% 
  dplyr::select(last_name) %>%
  dplyr::filter(stringr::str_detect(last_name, "/"))

# A tibble: 46 x 1
   last_name        
   <chr>            
 1 GARNER/MCGRAW    
 2 RHONEY/PETERS    
 3 MV 5/17/95       
 4 SIDI/HIDA        
 5 STUTLER/JAGGERS  
 6 MORRIS/BLOOM     
 7 BRINKLEY/BAGGS   
 8 RAMSEY/DOBERT    
 9 WATERS/CRUZ      
10 BRITTAIN/SPRINKLE
# … with 36 more rows
…
d %>% 
  dplyr::select(midl_name) %>%
  dplyr::filter(stringr::str_detect(midl_name, "/"))

# A tibble: 1,032 x 1
   midl_name   
   <chr>       
 1 ANNE/MORGAN 
 2 WILLIAM/MCKO
 3 F./MARTIN   
 4 LEANN/STYLES
 5 LEE/ DEBBY  
 6 LOUISE/MORRI
 7 BENGE/CRAIG 
 8 LEE/FALLS   
 9 SHELTON/DEW 
10 PEARL/CARR  
# … with 1,022 more rows
…
d %>% 
  dplyr::select(first_name) %>%
  dplyr::filter(stringr::str_detect(first_name, "\\*"))

# A tibble: 1 x 1
  first_name
  <chr>     
1 TOM*      

d %>% 
  dplyr::select(midl_name) %>%
  dplyr::filter(stringr::str_detect(midl_name, "\\*"))

# A tibble: 23 x 1
   midl_name
   <chr>    
 1 WAYNE*   
 2 WAYNE*   
 3 WAYNE*   
 4 DAVID*   
 5 DEAN*    
 6 BARE*    
 7 WAYNE*   
 8 RAY*     
 9 RANDALL* 
10 ALLEN*   
# … with 13 more rows
…
d %>% 
  dplyr::select(last_name, first_name, midl_name, sex) %>%
  dplyr::filter(stringr::str_detect(first_name, "`"))

# A tibble: 71 x 4
   last_name first_name midl_name sex   
   <chr>     <chr>      <chr>     <chr> 
 1 MANGUM    RENEE`     GUPTON    FEMALE
 2 CAUSIN    `ROBERT    GALE      MALE  
 3 OVERTON   RENEE`     ANN       FEMALE
 4 BRADSHAW  RENEE`     LUFFMAN   FEMALE
 5 WALLAACE  ANNA`      <NA>      FEMALE
 6 YOUNG     MICHELLE`  <NA>      FEMALE
 7 HARRIS    LE`ANDRA   RACHELE   FEMALE
 8 BALLARD   `MARY      J         FEMALE
 9 MILTON    STEPHEN`   GLENN     MALE  
10 DICKEY    `BETTY     JANE      FEMALE
# … with 61 more rows

d %>% 
  dplyr::select(last_name, first_name, midl_name, sex) %>%
  dplyr::filter(stringr::str_detect(midl_name, "`"))

# A tibble: 33 x 4
   last_name first_name midl_name sex   
   <chr>     <chr>      <chr>     <chr> 
 1 COOPER    MAXINE     REN`E     FEMALE
 2 SLAUGHTER WILBUR     O`NEAL    MALE  
 3 HILLIARD  TIMOTHY    O`NEAL    MALE  
 4 WILLIAMS  RODNEY     O`NEAL    MALE  
 5 AXTELL    JENNIFER   SERRE`    FEMALE
 6 BRASWELL  DENNIS     O`NEAL    MALE  
 7 HUMPHRIES CHARLES    O`NEAL    MALE  
 8 SUTTLES   CONNIE     RENE`     FEMALE
 9 THORN     ANDREA     RENEE`    FEMALE
10 GASTER    LISA       REN`EE    FEMALE
# … with 23 more rows
…
