[meta] Check name variables
…
d %>% dplyr::select(midl_name) %>%
  dplyr::filter(stringr::str_detect(midl_name, "[a-z]"))

# A tibble: 76 x 1
   midl_name  
   <chr>      
 1 McBRIDE    
 2 McBRIDE    
 3 McKINNIE   
 4 McLAWHORN  
 5 McKEITHAN  
 6 McCULLEN   
 7 MacFRANKLIN
 8 McQUEEN    
 9 McPHAIL    
10 McCULLEN   
# … with 66 more rows
…
